…
``` r
view(nobel)
```

\#\#Exercise 1 answers: observations: 26 columns x 935 entries = 24310
Variables: 26 variables Each variable represents demogrpahic information
about the nobel laurete

### Exercise 2

``` r
select(nobel,country, gender, died_date)
```

    ## # A tibble: 935 x 3
    ##    country        gender died_date 
    ##    <chr>          <chr>  <date>    
    ##  1 Germany        male   1923-02-10
    ##  2 Netherlands    male   1928-02-04
    ##  3 Netherlands    male   1943-10-09
    ##  4 France         male   1908-08-25
    ##  5 France         male   1906-04-19
    ##  6 <NA>           female 1934-07-04
    ##  7 France         female 1934-07-04
    ##  8 United Kingdom male   1919-06-30
    ##  9 Germany        male   1947-05-20
    ## 10 United Kingdom male   1940-08-30
    ## # … with 925 more rows
…
